-------------------------------------------------------------------------------
Test set: cl.duoc.loteria.repository.GameFinishedRepositoryTest
-------------------------------------------------------------------------------
Tests run: 2, Failures: 0, Errors: 0, Skipped: 0, Time elapsed: 0.001 sec
