-------------------------------------------------------------------------------
Test set: cl.duoc.loteria.repository.GameRepositoryTest
-------------------------------------------------------------------------------
Tests run: 3, Failures: 0, Errors: 0, Skipped: 0, Time elapsed: 0.007 sec
